{
    "products": [
      {
        "id": 10001,
        "name": "Philodendron Broken Heart Plant",
        "overview": "Lorem ipsum dolor sit amet consectetur adipisicing elit. Error unde quisquam magni vel eligendi nam.",
        "long_description": "Lorem ipsum dolor sit amet consectetur, adipisicing elit. Soluta aut, vel ipsum maxime quam quia, quaerat tempore minus odio exercitationem illum et eos, quas ipsa aperiam magnam officiis libero expedita quo voluptas deleniti sit dolore? Praesentium tempora cumque facere consectetur quia, molestiae quam, accusamus eius corrupti laudantium aliquid! Tempore laudantium unde labore voluptates repellat, dignissimos aperiam ad ipsum laborum recusandae voluptatem non dolore. Reiciendis cum quo illum. Dolorem, molestiae corporis.",
        "price": 29,
        "poster": "/product-images/1.webp",
        "rating": 5,
        "in_stock": true,
        "size": 5,
        "best_seller": true
      },
      {
        "id": 10002,
        "name": "Money Plant",
        "overview": "Lorem ipsum dolor sit amet consectetur adipisicing elit. Error unde quisquam magni vel eligendi nam.",
        "long_description": "Lorem ipsum dolor sit amet consectetur, adipisicing elit. Soluta aut, vel ipsum maxime quam quia, quaerat tempore minus odio exercitationem illum et eos, quas ipsa aperiam magnam officiis libero expedita quo voluptas deleniti sit dolore? Praesentium tempora cumque facere consectetur quia, molestiae quam, accusamus eius corrupti laudantium aliquid! Tempore laudantium unde labore voluptates repellat, dignissimos aperiam ad ipsum laborum recusandae voluptatem non dolore. Reiciendis cum quo illum. Dolorem, molestiae corporis.",
        "price": 19,
        "poster": "/product-images/2.webp",
        "rating": 5,
        "in_stock": true,
        "size": 2,
        "best_seller": false
      },
      {
        "id": 10003,
        "name": "Aglaonema Lipstick Plant",
        "overview": "Lorem ipsum dolor sit amet consectetur adipisicing elit. Error unde quisquam magni vel eligendi nam.",
        "long_description": "Lorem ipsum dolor sit amet consectetur, adipisicing elit. Soluta aut, vel ipsum maxime quam quia, quaerat tempore minus odio exercitationem illum et eos, quas ipsa aperiam magnam officiis libero expedita quo voluptas deleniti sit dolore? Praesentium tempora cumque facere consectetur quia, molestiae quam, accusamus eius corrupti laudantium aliquid! Tempore laudantium unde labore voluptates repellat, dignissimos aperiam ad ipsum laborum recusandae voluptatem non dolore. Reiciendis cum quo illum. Dolorem, molestiae corporis.",
        "price": 29,
        "poster": "/product-images/3.webp",
        "rating": 3,
        "in_stock": true,
        "size": 1,
        "best_seller": false
      },
      {
        "id": 10004,
        "name": "Sansevieria Futura Superba Snake Plant",
        "overview": "Lorem ipsum dolor sit amet consectetur adipisicing elit. Error unde quisquam magni vel eligendi nam.",
        "long_description": "Lorem ipsum dolor sit amet consectetur, adipisicing elit. Soluta aut, vel ipsum maxime quam quia, quaerat tempore minus odio exercitationem illum et eos, quas ipsa aperiam magnam officiis libero expedita quo voluptas deleniti sit dolore? Praesentium tempora cumque facere consectetur quia, molestiae quam, accusamus eius corrupti laudantium aliquid! Tempore laudantium unde labore voluptates repellat, dignissimos aperiam ad ipsum laborum recusandae voluptatem non dolore. Reiciendis cum quo illum. Dolorem, molestiae corporis.",
        "price": 99,
        "poster": "/product-images/4.webp",
        "rating": 5,
        "in_stock": true,
        "size": 7,
        "best_seller": true
      },
      {
        "id": 10005,
        "name": "Golden Money Plant",
        "overview": "Lorem ipsum dolor sit amet consectetur adipisicing elit. Error unde quisquam magni vel eligendi nam.",
        "long_description": "Lorem ipsum dolor sit amet consectetur, adipisicing elit. Soluta aut, vel ipsum maxime quam quia, quaerat tempore minus odio exercitationem illum et eos, quas ipsa aperiam magnam officiis libero expedita quo voluptas deleniti sit dolore? Praesentium tempora cumque facere consectetur quia, molestiae quam, accusamus eius corrupti laudantium aliquid! Tempore laudantium unde labore voluptates repellat, dignissimos aperiam ad ipsum laborum recusandae voluptatem non dolore. Reiciendis cum quo illum. Dolorem, molestiae corporis.",
        "price": 19,
        "poster": "/product-images/5.webp",
        "rating": 3,
        "in_stock": true,
        "size": 3,
        "best_seller": false
      },
      {
        "id": 10006,
        "name": "Sansevieria Futura Superba Snake Plant",
        "overview": "Lorem ipsum dolor sit amet consectetur adipisicing elit. Error unde quisquam magni vel eligendi nam.",
        "long_description": "Lorem ipsum dolor sit amet consectetur, adipisicing elit. Soluta aut, vel ipsum maxime quam quia, quaerat tempore minus odio exercitationem illum et eos, quas ipsa aperiam magnam officiis libero expedita quo voluptas deleniti sit dolore? Praesentium tempora cumque facere consectetur quia, molestiae quam, accusamus eius corrupti laudantium aliquid! Tempore laudantium unde labore voluptates repellat, dignissimos aperiam ad ipsum laborum recusandae voluptatem non dolore. Reiciendis cum quo illum. Dolorem, molestiae corporis.",
        "price": 99,
        "poster": "/product-images/6.webp",
        "rating": 5,
        "in_stock": true,
        "size": 10,
        "best_seller": false
      },
      {
        "id": 10007,
        "name": "Black Rubber Plant",
        "overview": "Lorem ipsum dolor sit amet consectetur adipisicing elit. Error unde quisquam magni vel eligendi nam.",
        "long_description": "Lorem ipsum dolor sit amet consectetur, adipisicing elit. Soluta aut, vel ipsum maxime quam quia, quaerat tempore minus odio exercitationem illum et eos, quas ipsa aperiam magnam officiis libero expedita quo voluptas deleniti sit dolore? Praesentium tempora cumque facere consectetur quia, molestiae quam, accusamus eius corrupti laudantium aliquid! Tempore laudantium unde labore voluptates repellat, dignissimos aperiam ad ipsum laborum recusandae voluptatem non dolore. Reiciendis cum quo illum. Dolorem, molestiae corporis.",
        "price": 19,
        "poster": "/product-images/7.webp",
        "rating": 5,
        "in_stock": true,
        "size": 2,
        "best_seller": false
      },
      {
        "id": 10008,
        "name": "Jade Plant",
        "overview": "Lorem ipsum dolor sit amet consectetur adipisicing elit. Error unde quisquam magni vel eligendi nam.",
        "long_description": "Lorem ipsum dolor sit amet consectetur, adipisicing elit. Soluta aut, vel ipsum maxime quam quia, quaerat tempore minus odio exercitationem illum et eos, quas ipsa aperiam magnam officiis libero expedita quo voluptas deleniti sit dolore? Praesentium tempora cumque facere consectetur quia, molestiae quam, accusamus eius corrupti laudantium aliquid! Tempore laudantium unde labore voluptates repellat, dignissimos aperiam ad ipsum laborum recusandae voluptatem non dolore. Reiciendis cum quo illum. Dolorem, molestiae corporis.",
        "price": 29,
        "poster": "/product-images/8.webp",
        "rating": 5,
        "in_stock": true,
        "size": 3,
        "best_seller": true
      },
      {
        "id": 10009,
        "name": "Syngonium Pixie White + Elite",
        "overview": "Lorem ipsum dolor sit amet consectetur adipisicing elit. Error unde quisquam magni vel eligendi nam.",
        "long_description": "Lorem ipsum dolor sit amet consectetur, adipisicing elit. Soluta aut, vel ipsum maxime quam quia, quaerat tempore minus odio exercitationem illum et eos, quas ipsa aperiam magnam officiis libero expedita quo voluptas deleniti sit dolore? Praesentium tempora cumque facere consectetur quia, molestiae quam, accusamus eius corrupti laudantium aliquid! Tempore laudantium unde labore voluptates repellat, dignissimos aperiam ad ipsum laborum recusandae voluptatem non dolore. Reiciendis cum quo illum. Dolorem, molestiae corporis.",
        "price": 29,
        "poster": "/product-images/9.webp",
        "rating": 5,
        "in_stock": true,
        "size": 3,
        "best_seller": false
      },
      {
        "id": 10010,
        "name": "Syngonium Pink Plant + Elite",
        "overview": "Lorem ipsum dolor sit amet consectetur adipisicing elit. Error unde quisquam magni vel eligendi nam.",
        "long_description": "Lorem ipsum dolor sit amet consectetur, adipisicing elit. Soluta aut, vel ipsum maxime quam quia, quaerat tempore minus odio exercitationem illum et eos, quas ipsa aperiam magnam officiis libero expedita quo voluptas deleniti sit dolore? Praesentium tempora cumque facere consectetur quia, molestiae quam, accusamus eius corrupti laudantium aliquid! Tempore laudantium unde labore voluptates repellat, dignissimos aperiam ad ipsum laborum recusandae voluptatem non dolore. Reiciendis cum quo illum. Dolorem, molestiae corporis.",
        "price": 19,
        "poster": "/product-images/10.webp",
        "rating": 4,
        "in_stock": true,
        "size": 1,
        "best_seller": false
      },
      {
        "id": 10011,
        "name": "Philodendron Broken Heart Elite",
        "overview": "Lorem ipsum dolor sit amet consectetur adipisicing elit. Error unde quisquam magni vel eligendi nam.",
        "long_description": "Lorem ipsum dolor sit amet consectetur, adipisicing elit. Soluta aut, vel ipsum maxime quam quia, quaerat tempore minus odio exercitationem illum et eos, quas ipsa aperiam magnam officiis libero expedita quo voluptas deleniti sit dolore? Praesentium tempora cumque facere consectetur quia, molestiae quam, accusamus eius corrupti laudantium aliquid! Tempore laudantium unde labore voluptates repellat, dignissimos aperiam ad ipsum laborum recusandae voluptatem non dolore. Reiciendis cum quo illum. Dolorem, molestiae corporis.",
        "price": 29,
        "poster": "/product-images/11.webp",
        "rating": 5,
        "in_stock": true,
        "size": 3,
        "best_seller": true
      },
      {
        "id": 10012,
        "name": "Philodendron Red + Elite Matte",
        "overview": "Lorem ipsum dolor sit amet consectetur adipisicing elit. Error unde quisquam magni vel eligendi nam.",
        "long_description": "Lorem ipsum dolor sit amet consectetur, adipisicing elit. Soluta aut, vel ipsum maxime quam quia, quaerat tempore minus odio exercitationem illum et eos, quas ipsa aperiam magnam officiis libero expedita quo voluptas deleniti sit dolore? Praesentium tempora cumque facere consectetur quia, molestiae quam, accusamus eius corrupti laudantium aliquid! Tempore laudantium unde labore voluptates repellat, dignissimos aperiam ad ipsum laborum recusandae voluptatem non dolore. Reiciendis cum quo illum. Dolorem, molestiae corporis.",
        "price": 9,
        "poster": "/product-images/12.webp",
        "rating": 5,
        "in_stock": true,
        "size": 1,
        "best_seller": false
      },
      {
        "id": 10013,
        "name": "Areca Palm",
        "overview": "Lorem ipsum dolor sit amet consectetur adipisicing elit. Error unde quisquam magni vel eligendi nam.",
        "long_description": "Lorem ipsum dolor sit amet consectetur, adipisicing elit. Soluta aut, vel ipsum maxime quam quia, quaerat tempore minus odio exercitationem illum et eos, quas ipsa aperiam magnam officiis libero expedita quo voluptas deleniti sit dolore? Praesentium tempora cumque facere consectetur quia, molestiae quam, accusamus eius corrupti laudantium aliquid! Tempore laudantium unde labore voluptates repellat, dignissimos aperiam ad ipsum laborum recusandae voluptatem non dolore. Reiciendis cum quo illum. Dolorem, molestiae corporis.",
        "price": 19,
        "poster": "/product-images/13.webp",
        "rating": 4,
        "in_stock": false,
        "size": 3,
        "best_seller": false
      },
      {
        "id": 10014,
        "name": "Aglaonema Lipstick",
        "overview": "Lorem ipsum dolor sit amet consectetur adipisicing elit. Error unde quisquam magni vel eligendi nam.",
        "long_description": "Lorem ipsum dolor sit amet consectetur, adipisicing elit. Soluta aut, vel ipsum maxime quam quia, quaerat tempore minus odio exercitationem illum et eos, quas ipsa aperiam magnam officiis libero expedita quo voluptas deleniti sit dolore? Praesentium tempora cumque facere consectetur quia, molestiae quam, accusamus eius corrupti laudantium aliquid! Tempore laudantium unde labore voluptates repellat, dignissimos aperiam ad ipsum laborum recusandae voluptatem non dolore. Reiciendis cum quo illum. Dolorem, molestiae corporis.",
        "price": 19,
        "poster": "/product-images/14.webp",
        "rating": 4,
        "in_stock": false,
        "size": 3,
        "best_seller": false
      },
      {
        "id": 10015,
        "name": "Zamia Green Plant",
        "overview": "Lorem ipsum dolor sit amet consectetur adipisicing elit. Error unde quisquam magni vel eligendi nam.",
        "long_description": "Lorem ipsum dolor sit amet consectetur, adipisicing elit. Soluta aut, vel ipsum maxime quam quia, quaerat tempore minus odio exercitationem illum et eos, quas ipsa aperiam magnam officiis libero expedita quo voluptas deleniti sit dolore? Praesentium tempora cumque facere consectetur quia, molestiae quam, accusamus eius corrupti laudantium aliquid! Tempore laudantium unde labore voluptates repellat, dignissimos aperiam ad ipsum laborum recusandae voluptatem non dolore. Reiciendis cum quo illum. Dolorem, molestiae corporis.",
        "price": 9,
        "poster": "/product-images/15.webp",
        "rating": 2,
        "in_stock": false,
        "size": 1,
        "best_seller": false
      },
      {
        "id": 10016,
        "name": "Golden Money Plant",
        "overview": "Lorem ipsum dolor sit amet consectetur adipisicing elit. Error unde quisquam magni vel eligendi nam.",
        "long_description": "Lorem ipsum dolor sit amet consectetur, adipisicing elit. Soluta aut, vel ipsum maxime quam quia, quaerat tempore minus odio exercitationem illum et eos, quas ipsa aperiam magnam officiis libero expedita quo voluptas deleniti sit dolore? Praesentium tempora cumque facere consectetur quia, molestiae quam, accusamus eius corrupti laudantium aliquid! Tempore laudantium unde labore voluptates repellat, dignissimos aperiam ad ipsum laborum recusandae voluptatem non dolore. Reiciendis cum quo illum. Dolorem, molestiae corporis.",
        "price": 99,
        "poster": "/product-images/16.webp",
        "rating": 5,
        "in_stock": true,
        "size": 7,
        "best_seller": true
      },
      {
        "id": 10017,
        "name": "Spider Plant",
        "overview": "Lorem ipsum dolor sit amet consectetur adipisicing elit. Error unde quisquam magni vel eligendi nam.",
        "long_description": "Lorem ipsum dolor sit amet consectetur, adipisicing elit. Soluta aut, vel ipsum maxime quam quia, quaerat tempore minus odio exercitationem illum et eos, quas ipsa aperiam magnam officiis libero expedita quo voluptas deleniti sit dolore? Praesentium tempora cumque facere consectetur quia, molestiae quam, accusamus eius corrupti laudantium aliquid! Tempore laudantium unde labore voluptates repellat, dignissimos aperiam ad ipsum laborum recusandae voluptatem non dolore. Reiciendis cum quo illum. Dolorem, molestiae corporis.",
        "price": 99,
        "poster": "/product-images/17.webp",
        "rating": 5,
        "in_stock": true,
        "size": 10,
        "best_seller": false
      },
      {
        "id": 10018,
        "name": "Zamioculcas Zamiifolia-Zamia (ZZ) Plant",
        "overview": "Lorem ipsum dolor sit amet consectetur adipisicing elit. Error unde quisquam magni vel eligendi nam.",
        "long_description": "Lorem ipsum dolor sit amet consectetur, adipisicing elit. Soluta aut, vel ipsum maxime quam quia, quaerat tempore minus odio exercitationem illum et eos, quas ipsa aperiam magnam officiis libero expedita quo voluptas deleniti sit dolore? Praesentium tempora cumque facere consectetur quia, molestiae quam, accusamus eius corrupti laudantium aliquid! Tempore laudantium unde labore voluptates repellat, dignissimos aperiam ad ipsum laborum recusandae voluptatem non dolore. Reiciendis cum quo illum. Dolorem, molestiae corporis.",
        "price": 99,
        "poster": "/product-images/18.webp",
        "rating": 5,
        "in_stock": true,
        "size": 7,
        "best_seller": true
      },
      {
        "id": 10019,
        "name": "Syngonium Pink",
        "overview": "Lorem ipsum dolor sit amet consectetur adipisicing elit. Error unde quisquam magni vel eligendi nam.",
        "long_description": "Lorem ipsum dolor sit amet consectetur, adipisicing elit. Soluta aut, vel ipsum maxime quam quia, quaerat tempore minus odio exercitationem illum et eos, quas ipsa aperiam magnam officiis libero expedita quo voluptas deleniti sit dolore? Praesentium tempora cumque facere consectetur quia, molestiae quam, accusamus eius corrupti laudantium aliquid! Tempore laudantium unde labore voluptates repellat, dignissimos aperiam ad ipsum laborum recusandae voluptatem non dolore. Reiciendis cum quo illum. Dolorem, molestiae corporis.",
        "price": 99,
        "poster": "/product-images/19.webp",
        "rating": 5,
        "in_stock": true,
        "size": 10,
        "best_seller": false
      },
      {
        "id": 10020,
        "name": "Syngonium Pixie White Butterfly",
        "overview": "Lorem ipsum dolor sit amet consectetur adipisicing elit. Error unde quisquam magni vel eligendi nam.",
        "long_description": "Lorem ipsum dolor sit amet consectetur, adipisicing elit. Soluta aut, vel ipsum maxime quam quia, quaerat tempore minus odio exercitationem illum et eos, quas ipsa aperiam magnam officiis libero expedita quo voluptas deleniti sit dolore? Praesentium tempora cumque facere consectetur quia, molestiae quam, accusamus eius corrupti laudantium aliquid! Tempore laudantium unde labore voluptates repellat, dignissimos aperiam ad ipsum laborum recusandae voluptatem non dolore. Reiciendis cum quo illum. Dolorem, molestiae corporis.",
        "price": 99,
        "poster": "/product-images/20.webp",
        "rating": 5,
        "in_stock": true,
        "size": 7,
        "best_seller": true
      }
    ],
    "featured-products": [
      {
        "id": 10004,
        "name": "Sansevieria Futura Superba Snake Plant",
        "overview": "Lorem ipsum dolor sit amet consectetur adipisicing elit. Error unde quisquam magni vel eligendi nam.",
        "long_description": "Lorem ipsum dolor sit amet consectetur, adipisicing elit. Soluta aut, vel ipsum maxime quam quia, quaerat tempore minus odio exercitationem illum et eos, quas ipsa aperiam magnam officiis libero expedita quo voluptas deleniti sit dolore? Praesentium tempora cumque facere consectetur quia, molestiae quam, accusamus eius corrupti laudantium aliquid! Tempore laudantium unde labore voluptates repellat, dignissimos aperiam ad ipsum laborum recusandae voluptatem non dolore. Reiciendis cum quo illum. Dolorem, molestiae corporis.",
        "price": 99,
        "poster": "/product-images/4.webp",
        "rating": 5,
        "in_stock": true,
        "size": 7,
        "best_seller": true
      },
      {
        "id": 10012,
        "name": "Philodendron Red + Elite Matte",
        "overview": "Lorem ipsum dolor sit amet consectetur adipisicing elit. Error unde quisquam magni vel eligendi nam.",
        "long_description": "Lorem ipsum dolor sit amet consectetur, adipisicing elit. Soluta aut, vel ipsum maxime quam quia, quaerat tempore minus odio exercitationem illum et eos, quas ipsa aperiam magnam officiis libero expedita quo voluptas deleniti sit dolore? Praesentium tempora cumque facere consectetur quia, molestiae quam, accusamus eius corrupti laudantium aliquid! Tempore laudantium unde labore voluptates repellat, dignissimos aperiam ad ipsum laborum recusandae voluptatem non dolore. Reiciendis cum quo illum. Dolorem, molestiae corporis.",
        "price": 9,
        "poster": "/product-images/12.webp",
        "rating": 5,
        "in_stock": true,
        "size": 1,
        "best_seller": false
      },
      {
        "id": 10017,
        "name": "Spider Plant",
        "overview": "Lorem ipsum dolor sit amet consectetur adipisicing elit. Error unde quisquam magni vel eligendi nam.",
        "long_description": "Lorem ipsum dolor sit amet consectetur, adipisicing elit. Soluta aut, vel ipsum maxime quam quia, quaerat tempore minus odio exercitationem illum et eos, quas ipsa aperiam magnam officiis libero expedita quo voluptas deleniti sit dolore? Praesentium tempora cumque facere consectetur quia, molestiae quam, accusamus eius corrupti laudantium aliquid! Tempore laudantium unde labore voluptates repellat, dignissimos aperiam ad ipsum laborum recusandae voluptatem non dolore. Reiciendis cum quo illum. Dolorem, molestiae corporis.",
        "price": 99,
        "poster": "/product-images/17.webp",
        "rating": 5,
        "in_stock": true,
        "size": 10,
        "best_seller": false
      }
    ],
    "orders": [
      
    ],
    "users": [
      
    ]
  }